{
    "id": "http://www4.asentiaics.com/_util/API/default.asmx/GetLearningPath",
    "description": "Get A LearningPath",
    "type": "object",
    "properties": {
        "id": {
            "type": "integer",
            "minimum": 0
        },
        "fts": {
            "type": "string"
        }
    },
    "oneOf": [
        
        {
            "required": [ "id" ]
        },
        {
            "required": [ "fts" ]
        }
    ],
    "additionalProperties": false
}