{
    "id": "http://www4.asentiaics.com/_util/API/default.asmx/GetUser",
    "description": "Get A User",
    "type": "object",
    "properties": {
        "id": {
            "type": [ "integer", "null" ],
            "minimum": 1
        },
        "username": {
            "type": [ "string", "null" ]
        },
        "email": {
            "type": [ "string", "null" ]
        },
        "fts": {
            "type": [ "string", "null" ]
        }
    },
    "additionalProperties": false,
    "oneOf": [
    {
        "required": [ "id" ]
    },
    {
        "required": [ "username" ]
    },
    {
        "required": [ "email" ]
    },
    {
        "required": [ "fts" ]
    }
  ],
    "additionalProperties": false
}